{
	"PassHash/Ldap":    "PassHash/Ldap",
	"PassHash/Overlay": "PassHash/Overlay",
	"PassHash/Plain":   "PassHash/Plain",
	"PassHash/Shadow":  "PassHash/Shadow",
	"SshKey":           "SshKey/Self",
	"SshKey/List":      "SshKey/List"
}
